%!PS-Adobe-3.0
%%DocumentNeededResources: font Helvetica
%%+ font Helvetica-Bold
%%+ font Helvetica-Oblique
%%+ font Helvetica-BoldOblique
%%+ font Symbol
%%DocumentMedia: a4 595 841 0 () ()
%%Title: R Graphics Output
%%Creator: R Software
%%Pages: (atend)
%%Orientation: Landscape
%%BoundingBox: 118 133 478 709
%%EndComments
%%BeginProlog
/bp  { gs sRGB 595.00 0 translate 90 rotate gs } def
% begin .ps.prolog
/gs  { gsave } bind def
/gr  { grestore } bind def
/ep  { showpage gr gr } bind def
/m   { moveto } bind def
/l  { rlineto } bind def
/np  { newpath } bind def
/cp  { closepath } bind def
/f   { fill } bind def
/o   { stroke } bind def
/c   { newpath 0 360 arc } bind def
/r   { 4 2 roll moveto 1 copy 3 -1 roll exch 0 exch rlineto 0 rlineto -1 mul 0 exch rlineto closepath } bind def
/p1  { stroke } bind def
/p2  { gsave bg fill grestore newpath } bind def
/p3  { gsave bg fill grestore stroke } bind def
/p6  { gsave bg eofill grestore newpath } bind def
/p7  { gsave bg eofill grestore stroke } bind def
/t   { 5 -2 roll moveto gsave rotate
       1 index stringwidth pop
       mul neg 0 rmoveto show grestore } bind def
/ta  { 4 -2 roll moveto gsave rotate show } bind def
/tb  { 2 -1 roll 0 rmoveto show } bind def
/cl  { grestore gsave newpath 3 index 3 index moveto 1 index
       4 -1 roll lineto  exch 1 index lineto lineto
       closepath clip newpath } bind def
/rgb { setrgbcolor } bind def
/s   { scalefont setfont } bind def
% end   .ps.prolog
/sRGB { [ /CIEBasedABC
          << /DecodeLMN
               [ { dup 0.03928 le
                        {12.92321 div}
                        {0.055 add 1.055 div 2.4 exp }
                     ifelse
                 } bind dup dup
               ]
             /MatrixLMN [0.412457 0.212673 0.019334
                         0.357576 0.715152 0.119192
                         0.180437 0.072175 0.950301]
             /WhitePoint [0.9505 1.0 1.0890]
           >>
         ] setcolorspace } bind def
/srgb { setcolor } bind def
%%IncludeResource: font Helvetica
/Helvetica findfont
dup length dict begin
  {1 index /FID ne {def} {pop pop} ifelse} forall
  /Encoding ISOLatin1Encoding def
  currentdict
  end
/Font1 exch definefont pop
%%IncludeResource: font Helvetica-Bold
/Helvetica-Bold findfont
dup length dict begin
  {1 index /FID ne {def} {pop pop} ifelse} forall
  /Encoding ISOLatin1Encoding def
  currentdict
  end
/Font2 exch definefont pop
%%IncludeResource: font Helvetica-Oblique
/Helvetica-Oblique findfont
dup length dict begin
  {1 index /FID ne {def} {pop pop} ifelse} forall
  /Encoding ISOLatin1Encoding def
  currentdict
  end
/Font3 exch definefont pop
%%IncludeResource: font Helvetica-BoldOblique
/Helvetica-BoldOblique findfont
dup length dict begin
  {1 index /FID ne {def} {pop pop} ifelse} forall
  /Encoding ISOLatin1Encoding def
  currentdict
  end
/Font4 exch definefont pop
%%IncludeResource: font Symbol
/Symbol findfont
dup length dict begin
  {1 index /FID ne {def} {pop pop} ifelse} forall
  currentdict
  end
/Font5 exch definefont pop
%%EndProlog
%%Page: 1 1
bp
132.94 117.64 708.94 477.64 cl
/Font2 findfont 19 s
0 0 0 srgb
449.02 452.10 (Time:14:00) .5 0 t
/Font1 findfont 27 s
261.47 121.38 (T) 0 ta
-3.240 (r) tb
-0.270 (affic v) tb
-0.675 (olume of each cell \(KB\)) tb gr
166.64 316.36 (Density) .5 90 t
226.54 192.52 671.50 440.20 cl
0 0 0 srgb
0.75 setlinewidth
[] 0 setdash
1 setlinecap
1 setlinejoin
10.00 setmiterlimit
216.01 201.69 13.73 0.00 r p1
229.74 201.69 13.73 0.24 r p1
243.48 201.69 13.73 5.57 r p1
257.21 201.69 13.73 7.27 r p1
270.94 201.69 13.73 11.62 r p1
284.68 201.69 13.73 12.35 r p1
298.41 201.69 13.73 15.74 r p1
312.14 201.69 13.73 24.70 r p1
325.88 201.69 13.73 36.33 r p1
339.61 201.69 13.73 43.35 r p1
353.34 201.69 13.73 60.30 r p1
367.08 201.69 13.73 76.28 r p1
380.81 201.69 13.73 108.73 r p1
394.54 201.69 13.73 128.59 r p1
408.28 201.69 13.73 142.39 r p1
422.01 201.69 13.73 182.59 r p1
435.74 201.69 13.73 200.03 r p1
449.48 201.69 13.73 218.68 r p1
463.21 201.69 13.73 229.33 r p1
476.94 201.69 13.73 216.01 r p1
490.68 201.69 13.73 149.42 r p1
504.41 201.69 13.73 101.47 r p1
518.14 201.69 13.73 62.00 r p1
531.88 201.69 13.73 38.50 r p1
545.61 201.69 13.73 20.10 r p1
559.34 201.69 13.73 9.69 r p1
573.08 201.69 13.73 5.57 r p1
586.81 201.69 13.73 3.15 r p1
600.54 201.69 13.73 2.42 r p1
614.28 201.69 13.73 1.45 r p1
628.01 201.69 13.73 0.24 r p1
641.74 201.69 13.73 0.00 r p1
132.94 117.64 708.94 477.64 cl
0 0 0 srgb
0.75 setlinewidth
[] 0 setdash
1 setlinecap
1 setlinejoin
10.00 setmiterlimit
np
226.54 201.69 m
0 211.41 l
o
np
226.54 201.69 m
-9.36 0 l
o
np
226.54 254.54 m
-9.36 0 l
o
np
226.54 307.40 m
-9.36 0 l
o
np
226.54 360.25 m
-9.36 0 l
o
np
226.54 413.10 m
-9.36 0 l
o
/Font1 findfont 19 s
204.08 201.69 (0.00) .5 90 t
204.08 254.54 (0.05) .5 90 t
204.08 307.40 (0.10) .5 90 t
204.08 360.25 (0.15) .5 90 t
204.08 413.10 (0.20) .5 90 t
np
226.54 192.52 m
408.34 0 l
o
np
291.54 192.52 m
0 -9.36 l
o
np
360.21 192.52 m
0 -9.36 l
o
np
428.88 192.52 m
0 -9.36 l
o
np
497.54 192.52 m
0 -9.36 l
o
np
566.21 192.52 m
0 -9.36 l
o
np
634.88 192.52 m
0 -9.36 l
o
277.37 159.18 (10) 0 0 t
/Font1 findfont 13 s
298.49 168.62 (1) 0 0 t
/Font1 findfont 19 s
346.03 159.18 (10) 0 0 t
/Font1 findfont 13 s
367.16 168.62 (2) 0 0 t
/Font1 findfont 19 s
414.70 159.18 (10) 0 0 t
/Font1 findfont 13 s
435.83 168.62 (3) 0 0 t
/Font1 findfont 19 s
483.37 159.18 (10) 0 0 t
/Font1 findfont 13 s
504.49 168.62 (4) 0 0 t
/Font1 findfont 19 s
552.03 159.18 (10) 0 0 t
/Font1 findfont 13 s
573.16 168.62 (5) 0 0 t
/Font1 findfont 19 s
620.70 159.18 (10) 0 0 t
/Font1 findfont 13 s
641.83 168.62 (6) 0 0 t
226.54 192.52 671.50 440.20 cl
1 0 0.8000 srgb
1.50 setlinewidth
[ 4.50 7.50] 0 setdash
1 setlinecap
1 setlinejoin
10.00 setmiterlimit
np
132.94 202.23 m
1.02 0.03 l
1.23 0.06 l
1.23 0.06 l
1.22 0.06 l
1.23 0.08 l
1.23 0.08 l
1.23 0.08 l
1.22 0.09 l
1.23 0.09 l
1.23 0.10 l
1.22 0.09 l
1.23 0.09 l
1.23 0.08 l
1.23 0.08 l
1.22 0.07 l
1.23 0.06 l
1.23 0.06 l
1.23 0.05 l
1.22 0.05 l
1.23 0.04 l
1.23 0.04 l
1.22 0.04 l
1.23 0.04 l
1.23 0.04 l
1.23 0.04 l
1.22 0.05 l
1.23 0.05 l
1.23 0.06 l
1.22 0.06 l
1.23 0.06 l
1.23 0.07 l
1.23 0.06 l
1.22 0.07 l
1.23 0.06 l
1.23 0.05 l
1.22 0.06 l
1.23 0.05 l
1.23 0.04 l
1.23 0.05 l
1.22 0.04 l
1.23 0.05 l
1.23 0.05 l
1.23 0.05 l
1.22 0.07 l
1.23 0.07 l
1.23 0.08 l
1.22 0.09 l
1.23 0.10 l
1.23 0.10 l
1.23 0.12 l
1.22 0.12 l
1.23 0.12 l
1.23 0.12 l
1.22 0.12 l
1.23 0.12 l
1.23 0.11 l
1.23 0.11 l
1.22 0.10 l
1.23 0.09 l
1.23 0.09 l
1.22 0.08 l
1.23 0.07 l
1.23 0.08 l
1.23 0.07 l
1.22 0.08 l
1.23 0.09 l
1.23 0.10 l
1.22 0.11 l
1.23 0.12 l
1.23 0.15 l
1.23 0.16 l
1.22 0.17 l
1.23 0.19 l
1.23 0.21 l
1.23 0.21 l
1.22 0.22 l
1.23 0.21 l
1.23 0.22 l
1.22 0.21 l
1.23 0.19 l
1.23 0.19 l
1.23 0.17 l
1.22 0.15 l
1.23 0.15 l
1.23 0.13 l
1.22 0.12 l
1.23 0.12 l
1.23 0.12 l
1.23 0.12 l
1.22 0.13 l
1.23 0.15 l
1.23 0.17 l
1.22 0.18 l
1.23 0.20 l
1.23 0.23 l
1.23 0.25 l
1.22 0.27 l
1.23 0.28 l
1.23 0.31 l
255.46 213.23 lineto
1.22 0.32 l
1.23 0.33 l
1.23 0.34 l
1.22 0.33 l
1.23 0.33 l
1.23 0.33 l
1.23 0.32 l
1.22 0.30 l
1.23 0.29 l
1.23 0.28 l
1.22 0.26 l
1.23 0.24 l
1.23 0.23 l
1.23 0.21 l
1.22 0.20 l
1.23 0.19 l
1.23 0.18 l
1.22 0.18 l
1.23 0.19 l
1.23 0.21 l
1.23 0.22 l
1.22 0.25 l
1.23 0.29 l
1.23 0.32 l
1.23 0.37 l
1.22 0.42 l
1.23 0.46 l
1.23 0.51 l
1.22 0.55 l
1.23 0.59 l
1.23 0.61 l
1.23 0.64 l
1.22 0.65 l
1.23 0.65 l
1.23 0.63 l
1.22 0.61 l
1.23 0.59 l
1.23 0.55 l
1.23 0.51 l
1.22 0.47 l
1.23 0.42 l
1.23 0.39 l
1.22 0.37 l
1.23 0.34 l
1.23 0.34 l
1.23 0.33 l
1.22 0.35 l
1.23 0.36 l
1.23 0.40 l
1.23 0.44 l
1.22 0.49 l
1.23 0.53 l
1.23 0.59 l
1.22 0.64 l
1.23 0.68 l
1.23 0.73 l
1.23 0.78 l
1.22 0.82 l
1.23 0.85 l
1.23 0.88 l
1.22 0.91 l
1.23 0.94 l
1.23 0.97 l
1.23 0.98 l
1.22 1.02 l
1.23 1.03 l
1.23 1.07 l
1.22 1.09 l
1.23 1.12 l
1.23 1.15 l
1.23 1.17 l
1.22 1.20 l
1.23 1.22 l
1.23 1.24 l
1.23 1.25 l
1.22 1.26 l
1.23 1.27 l
1.23 1.27 l
1.22 1.28 l
1.23 1.27 l
1.23 1.26 l
1.23 1.26 l
1.22 1.24 l
1.23 1.24 l
1.23 1.22 l
1.22 1.22 l
1.23 1.21 l
1.23 1.21 l
1.23 1.22 l
1.22 1.23 l
1.23 1.26 l
1.23 1.29 l
1.22 1.33 l
1.23 1.37 l
1.23 1.42 l
1.23 1.47 l
1.22 1.53 l
1.23 1.58 l
1.23 1.63 l
378.18 288.67 lineto
1.22 1.69 l
1.23 1.72 l
1.23 1.72 l
1.22 1.72 l
1.23 1.72 l
1.23 1.70 l
1.23 1.67 l
1.22 1.65 l
1.23 1.62 l
1.23 1.59 l
1.22 1.57 l
1.23 1.54 l
1.23 1.53 l
1.23 1.53 l
1.22 1.51 l
1.23 1.53 l
1.23 1.54 l
1.22 1.56 l
1.23 1.57 l
1.23 1.61 l
1.23 1.63 l
1.22 1.66 l
1.23 1.68 l
1.23 1.71 l
1.22 1.73 l
1.23 1.75 l
1.23 1.75 l
1.23 1.77 l
1.22 1.76 l
1.23 1.77 l
1.23 1.76 l
1.23 1.77 l
1.22 1.78 l
1.23 1.78 l
1.23 1.80 l
1.22 1.82 l
1.23 1.85 l
1.23 1.87 l
1.23 1.91 l
1.22 1.93 l
1.23 1.96 l
1.23 1.98 l
1.22 1.99 l
1.23 1.99 l
1.23 1.98 l
1.23 1.95 l
1.22 1.92 l
1.23 1.87 l
1.23 1.82 l
1.22 1.76 l
1.23 1.68 l
1.23 1.62 l
1.23 1.53 l
1.22 1.45 l
1.23 1.37 l
1.23 1.30 l
1.23 1.21 l
1.22 1.14 l
1.23 1.05 l
1.23 0.98 l
1.22 0.89 l
1.23 0.80 l
1.23 0.71 l
1.23 0.62 l
1.22 0.54 l
1.23 0.44 l
1.23 0.37 l
1.22 0.28 l
1.23 0.21 l
1.23 0.14 l
1.23 0.07 l
1.22 0.02 l
1.23 -0.04 l
1.23 -0.09 l
1.22 -0.13 l
1.23 -0.17 l
1.23 -0.23 l
1.23 -0.28 l
1.22 -0.35 l
1.23 -0.42 l
1.23 -0.52 l
1.23 -0.64 l
1.22 -0.76 l
1.23 -0.89 l
1.23 -1.04 l
1.22 -1.19 l
1.23 -1.36 l
1.23 -1.52 l
1.23 -1.68 l
1.22 -1.86 l
1.23 -2.04 l
1.23 -2.21 l
1.22 -2.35 l
1.23 -2.50 l
1.23 -2.65 l
1.23 -2.78 l
1.22 -2.90 l
1.23 -3.02 l
1.23 -3.13 l
500.89 354.10 lineto
1.23 -3.31 l
1.23 -3.37 l
1.23 -3.43 l
1.22 -3.46 l
1.23 -3.49 l
1.23 -3.50 l
1.23 -3.49 l
1.22 -3.48 l
1.23 -3.46 l
1.23 -3.43 l
1.22 -3.40 l
1.23 -3.36 l
1.23 -3.32 l
1.23 -3.28 l
1.22 -3.25 l
1.23 -3.21 l
1.23 -3.17 l
1.22 -3.14 l
1.23 -3.11 l
1.23 -3.09 l
1.23 -3.06 l
1.22 -3.04 l
1.23 -3.02 l
1.23 -3.00 l
1.22 -2.99 l
1.23 -2.96 l
1.23 -2.93 l
1.23 -2.91 l
1.22 -2.88 l
1.23 -2.84 l
1.23 -2.81 l
1.23 -2.76 l
1.22 -2.71 l
1.23 -2.66 l
1.23 -2.60 l
1.22 -2.54 l
1.23 -2.47 l
1.23 -2.40 l
1.23 -2.33 l
1.22 -2.25 l
1.23 -2.17 l
1.23 -2.09 l
1.22 -2.01 l
1.23 -1.92 l
1.23 -1.83 l
1.23 -1.74 l
1.22 -1.63 l
1.23 -1.53 l
1.23 -1.43 l
1.22 -1.34 l
1.23 -1.24 l
1.23 -1.14 l
1.23 -1.05 l
1.22 -0.97 l
1.23 -0.88 l
1.23 -0.79 l
1.23 -0.71 l
1.22 -0.64 l
1.23 -0.59 l
1.23 -0.52 l
1.22 -0.47 l
1.23 -0.43 l
1.23 -0.38 l
1.23 -0.35 l
1.22 -0.31 l
1.23 -0.27 l
1.23 -0.25 l
1.22 -0.23 l
1.23 -0.20 l
1.23 -0.18 l
1.23 -0.17 l
1.22 -0.14 l
1.23 -0.13 l
1.23 -0.12 l
1.22 -0.10 l
1.23 -0.09 l
1.23 -0.07 l
1.23 -0.07 l
1.22 -0.05 l
1.23 -0.05 l
1.23 -0.04 l
1.23 -0.04 l
1.22 -0.03 l
1.23 -0.02 l
1.23 -0.02 l
1.22 -0.02 l
1.23 -0.01 l
1.23 -0.01 l
1.23 -0.01 l
1.22 0 l
1.23 -0.01 l
1.23 0 l
1.22 0 l
1.23 0 l
1.23 -0.01 l
1.23 0 l
o
0.8000 0 0.2000 srgb
1.50 setlinewidth
[ 0.00 6.00] 0 setdash
np
165.38 201.69 m
1.05 0 l
1.06 0 l
1.05 0.01 l
1.05 0 l
1.06 0 l
1.05 0 l
1.06 0 l
1.05 0.01 l
1.05 0 l
1.06 0.01 l
1.05 0 l
1.06 0.01 l
1.05 0 l
1.05 0.01 l
1.06 0.01 l
1.05 0.01 l
1.05 0.01 l
1.06 0.01 l
1.05 0.01 l
1.06 0.01 l
1.05 0 l
1.05 0.01 l
1.06 0.01 l
1.05 0 l
1.06 0.01 l
1.05 0 l
1.05 0 l
1.06 0 l
1.05 0 l
1.06 0 l
1.05 -0.01 l
1.05 0 l
1.06 -0.01 l
1.05 0 l
1.05 0 l
1.06 -0.01 l
1.05 0 l
1.06 0 l
1.05 0.01 l
1.05 0 l
1.06 0.01 l
1.05 0.01 l
1.06 0.02 l
1.05 0.02 l
1.05 0.02 l
1.06 0.03 l
1.05 0.03 l
1.06 0.03 l
1.05 0.04 l
1.05 0.04 l
1.06 0.04 l
1.05 0.05 l
1.05 0.05 l
1.06 0.05 l
1.05 0.06 l
1.06 0.05 l
1.05 0.06 l
1.05 0.06 l
1.06 0.07 l
1.05 0.06 l
1.06 0.07 l
1.05 0.07 l
1.05 0.06 l
1.06 0.07 l
1.05 0.07 l
1.06 0.08 l
1.05 0.07 l
1.05 0.08 l
1.06 0.08 l
1.05 0.08 l
1.06 0.08 l
1.05 0.09 l
1.05 0.09 l
1.06 0.10 l
1.05 0.10 l
1.05 0.10 l
1.06 0.11 l
1.05 0.11 l
1.06 0.11 l
1.05 0.11 l
1.05 0.11 l
1.06 0.12 l
1.05 0.11 l
1.06 0.12 l
1.05 0.11 l
1.05 0.12 l
1.06 0.12 l
1.05 0.12 l
1.06 0.12 l
1.05 0.12 l
1.05 0.13 l
1.06 0.14 l
1.05 0.14 l
1.05 0.15 l
1.06 0.17 l
1.05 0.17 l
1.06 0.18 l
1.05 0.20 l
1.05 0.21 l
270.77 207.23 lineto
1.05 0.25 l
1.06 0.27 l
1.05 0.29 l
1.05 0.32 l
1.06 0.34 l
1.05 0.36 l
1.06 0.39 l
1.05 0.41 l
1.05 0.44 l
1.06 0.46 l
1.05 0.48 l
1.05 0.50 l
1.06 0.51 l
1.05 0.52 l
1.06 0.53 l
1.05 0.54 l
1.05 0.54 l
1.06 0.54 l
1.05 0.54 l
1.06 0.54 l
1.05 0.53 l
1.05 0.53 l
1.06 0.52 l
1.05 0.52 l
1.06 0.52 l
1.05 0.51 l
1.05 0.50 l
1.06 0.51 l
1.05 0.50 l
1.05 0.51 l
1.06 0.51 l
1.05 0.52 l
1.06 0.53 l
1.05 0.55 l
1.05 0.57 l
1.06 0.59 l
1.05 0.61 l
1.06 0.65 l
1.05 0.68 l
1.05 0.73 l
1.06 0.76 l
1.05 0.82 l
1.06 0.86 l
1.05 0.92 l
1.05 0.96 l
1.06 1.01 l
1.05 1.06 l
1.06 1.10 l
1.05 1.13 l
1.05 1.17 l
1.06 1.19 l
1.05 1.20 l
1.05 1.21 l
1.06 1.21 l
1.05 1.20 l
1.06 1.19 l
1.05 1.18 l
1.05 1.16 l
1.06 1.13 l
1.05 1.13 l
1.06 1.11 l
1.05 1.11 l
1.05 1.12 l
1.06 1.13 l
1.05 1.16 l
1.06 1.19 l
1.05 1.24 l
1.05 1.30 l
1.06 1.36 l
1.05 1.44 l
1.05 1.51 l
1.06 1.58 l
1.05 1.66 l
1.06 1.74 l
1.05 1.82 l
1.05 1.87 l
1.06 1.92 l
1.05 1.96 l
1.06 1.99 l
1.05 2.00 l
1.05 2.00 l
1.06 1.99 l
1.05 1.95 l
1.06 1.92 l
1.05 1.87 l
1.05 1.82 l
1.06 1.76 l
1.05 1.69 l
1.05 1.64 l
1.06 1.57 l
1.05 1.51 l
1.06 1.46 l
1.05 1.42 l
1.05 1.40 l
1.06 1.38 l
1.05 1.38 l
1.06 1.39 l
1.05 1.42 l
1.05 1.46 l
376.16 311.43 lineto
1.05 1.57 l
1.06 1.64 l
1.05 1.69 l
1.05 1.77 l
1.06 1.82 l
1.05 1.88 l
1.06 1.93 l
1.05 1.97 l
1.05 1.99 l
1.06 1.99 l
1.05 2.00 l
1.05 1.98 l
1.06 1.95 l
1.05 1.91 l
1.06 1.86 l
1.05 1.80 l
1.05 1.73 l
1.06 1.65 l
1.05 1.59 l
1.06 1.50 l
1.05 1.44 l
1.05 1.36 l
1.06 1.29 l
1.05 1.21 l
1.06 1.16 l
1.05 1.10 l
1.05 1.06 l
1.06 1.02 l
1.05 0.98 l
1.05 0.96 l
1.06 0.93 l
1.05 0.92 l
1.06 0.90 l
1.05 0.90 l
1.05 0.90 l
1.06 0.89 l
1.05 0.89 l
1.06 0.88 l
1.05 0.89 l
1.05 0.87 l
1.06 0.87 l
1.05 0.85 l
1.06 0.83 l
1.05 0.82 l
1.05 0.79 l
1.06 0.75 l
1.05 0.72 l
1.05 0.67 l
1.06 0.63 l
1.05 0.58 l
1.06 0.52 l
1.05 0.47 l
1.05 0.42 l
1.06 0.36 l
1.05 0.31 l
1.06 0.25 l
1.05 0.20 l
1.05 0.15 l
1.06 0.10 l
1.05 0.06 l
1.06 0.03 l
1.05 -0.01 l
1.05 -0.04 l
1.06 -0.08 l
1.05 -0.11 l
1.05 -0.13 l
1.06 -0.16 l
1.05 -0.19 l
1.06 -0.21 l
1.05 -0.23 l
1.05 -0.26 l
1.06 -0.28 l
1.05 -0.30 l
1.06 -0.33 l
1.05 -0.35 l
1.05 -0.39 l
1.06 -0.42 l
1.05 -0.46 l
1.06 -0.50 l
1.05 -0.57 l
1.05 -0.64 l
1.06 -0.71 l
1.05 -0.81 l
1.06 -0.90 l
1.05 -1.00 l
1.05 -1.10 l
1.06 -1.22 l
1.05 -1.33 l
1.05 -1.46 l
1.06 -1.56 l
1.05 -1.66 l
1.06 -1.74 l
1.05 -1.81 l
1.05 -1.87 l
1.06 -1.91 l
1.05 -1.95 l
1.06 -1.96 l
1.05 -1.96 l
1.05 -1.95 l
481.55 344.08 lineto
1.05 -1.91 l
1.06 -1.87 l
1.05 -1.85 l
1.05 -1.81 l
1.06 -1.78 l
1.05 -1.73 l
1.05 -1.71 l
1.06 -1.67 l
1.05 -1.64 l
1.06 -1.61 l
1.05 -1.58 l
1.05 -1.55 l
1.06 -1.52 l
1.05 -1.48 l
1.06 -1.45 l
1.05 -1.42 l
1.05 -1.38 l
1.06 -1.36 l
1.05 -1.33 l
1.06 -1.30 l
1.05 -1.29 l
1.05 -1.27 l
1.06 -1.26 l
1.05 -1.27 l
1.05 -1.29 l
1.06 -1.29 l
1.05 -1.33 l
1.06 -1.35 l
1.05 -1.39 l
1.05 -1.43 l
1.06 -1.47 l
1.05 -1.51 l
1.06 -1.55 l
1.05 -1.59 l
1.05 -1.62 l
1.06 -1.65 l
1.05 -1.67 l
1.06 -1.69 l
1.05 -1.71 l
1.05 -1.71 l
1.06 -1.71 l
1.05 -1.71 l
1.05 -1.70 l
1.06 -1.70 l
1.05 -1.69 l
1.06 -1.67 l
1.05 -1.67 l
1.05 -1.65 l
1.06 -1.65 l
1.05 -1.63 l
1.06 -1.63 l
1.05 -1.62 l
1.05 -1.60 l
1.06 -1.60 l
1.05 -1.57 l
1.06 -1.56 l
1.05 -1.54 l
1.05 -1.50 l
1.06 -1.48 l
1.05 -1.45 l
1.06 -1.40 l
1.05 -1.36 l
1.05 -1.30 l
1.06 -1.26 l
1.05 -1.22 l
1.05 -1.16 l
1.06 -1.13 l
1.05 -1.09 l
1.06 -1.06 l
1.05 -1.03 l
1.05 -1.01 l
1.06 -0.99 l
1.05 -0.98 l
1.06 -0.98 l
1.05 -0.96 l
1.05 -0.97 l
1.06 -0.96 l
1.05 -0.95 l
1.06 -0.94 l
1.05 -0.92 l
1.05 -0.90 l
1.06 -0.87 l
1.05 -0.85 l
1.05 -0.81 l
1.06 -0.77 l
1.05 -0.72 l
1.06 -0.68 l
1.05 -0.64 l
1.05 -0.59 l
1.06 -0.56 l
1.05 -0.52 l
1.06 -0.48 l
1.05 -0.46 l
1.05 -0.44 l
1.06 -0.43 l
1.05 -0.41 l
1.06 -0.41 l
1.05 -0.41 l
1.05 -0.42 l
586.94 217.00 lineto
1.05 -0.43 l
1.05 -0.45 l
1.06 -0.46 l
1.05 -0.47 l
1.06 -0.49 l
1.05 -0.50 l
1.05 -0.51 l
1.06 -0.51 l
1.05 -0.52 l
1.06 -0.52 l
1.05 -0.52 l
1.05 -0.51 l
1.06 -0.50 l
1.05 -0.50 l
1.06 -0.47 l
1.05 -0.46 l
1.05 -0.44 l
1.06 -0.41 l
1.05 -0.40 l
1.06 -0.36 l
1.05 -0.34 l
1.05 -0.32 l
1.06 -0.29 l
1.05 -0.27 l
1.05 -0.25 l
1.06 -0.24 l
1.05 -0.21 l
1.06 -0.20 l
1.05 -0.18 l
1.05 -0.18 l
1.06 -0.17 l
1.05 -0.16 l
1.06 -0.15 l
1.05 -0.15 l
1.05 -0.15 l
1.06 -0.14 l
1.05 -0.13 l
1.06 -0.13 l
1.05 -0.13 l
1.05 -0.12 l
1.06 -0.11 l
1.05 -0.11 l
1.05 -0.10 l
1.06 -0.09 l
1.05 -0.08 l
1.06 -0.08 l
1.05 -0.08 l
1.05 -0.06 l
1.06 -0.06 l
1.05 -0.06 l
1.06 -0.05 l
1.05 -0.05 l
1.05 -0.04 l
1.06 -0.04 l
1.05 -0.04 l
1.06 -0.03 l
1.05 -0.03 l
1.05 -0.03 l
1.06 -0.02 l
1.05 -0.03 l
1.05 -0.02 l
1.06 -0.02 l
1.05 -0.02 l
1.06 -0.02 l
1.05 -0.02 l
1.05 -0.02 l
1.06 -0.01 l
1.05 -0.02 l
1.06 -0.02 l
1.05 -0.02 l
1.05 -0.02 l
1.06 -0.02 l
1.05 -0.02 l
1.06 -0.02 l
1.05 -0.02 l
1.05 -0.02 l
1.06 -0.02 l
1.05 -0.02 l
1.05 -0.02 l
1.06 -0.02 l
1.05 -0.03 l
1.06 -0.02 l
1.05 -0.02 l
1.05 -0.02 l
1.06 -0.02 l
1.05 -0.03 l
1.06 -0.02 l
1.05 -0.02 l
1.05 -0.02 l
1.06 -0.02 l
1.05 -0.02 l
1.06 -0.02 l
1.05 -0.01 l
1.05 -0.02 l
1.06 -0.01 l
1.05 -0.02 l
1.06 -0.01 l
1.05 -0.01 l
1.05 -0.01 l
692.33 201.73 lineto
1.05 -0.01 l
1.05 -0.01 l
1.06 0 l
1.05 -0.01 l
1.06 0 l
1.05 0 l
1.05 0 l
1.06 0 l
1.05 -0.01 l
1.06 0 l
1.05 0 l
o
0 0 0.4000 srgb
1.50 setlinewidth
[ 0.00 6.00 4.50 6.00] 0 setdash
np
132.94 202.51 m
1.26 0.02 l
1.33 0.02 l
1.34 0.02 l
1.33 0.01 l
1.34 0 l
1.33 0 l
1.34 0.01 l
1.33 0 l
1.33 0.01 l
1.34 0.02 l
1.33 0.03 l
1.34 0.05 l
1.33 0.06 l
1.34 0.07 l
1.33 0.08 l
1.33 0.08 l
1.34 0.09 l
1.33 0.08 l
1.34 0.07 l
1.33 0.05 l
1.34 0.04 l
1.33 0.03 l
1.33 0.01 l
1.34 -0.01 l
1.33 -0.01 l
1.34 -0.01 l
1.33 -0.01 l
1.34 -0.01 l
1.33 0.02 l
1.33 0.02 l
1.34 0.05 l
1.33 0.07 l
1.34 0.08 l
1.33 0.10 l
1.34 0.10 l
1.33 0.12 l
1.33 0.11 l
1.34 0.11 l
1.33 0.10 l
1.34 0.09 l
1.33 0.08 l
1.33 0.07 l
1.34 0.05 l
1.33 0.05 l
1.34 0.03 l
1.33 0.03 l
1.34 0.03 l
1.33 0.02 l
1.33 0.03 l
1.34 0.02 l
1.33 0.04 l
1.34 0.04 l
1.33 0.04 l
1.34 0.05 l
1.33 0.05 l
1.33 0.06 l
1.34 0.06 l
1.33 0.06 l
1.34 0.07 l
1.33 0.08 l
1.34 0.09 l
1.33 0.10 l
1.33 0.11 l
1.34 0.12 l
1.33 0.13 l
1.34 0.15 l
1.33 0.16 l
1.34 0.17 l
1.33 0.17 l
1.33 0.17 l
1.34 0.17 l
1.33 0.16 l
1.34 0.15 l
1.33 0.14 l
1.34 0.13 l
1.33 0.13 l
1.33 0.14 l
1.34 0.14 l
1.33 0.16 l
1.34 0.19 l
1.33 0.21 l
1.34 0.23 l
1.33 0.26 l
1.33 0.28 l
1.34 0.28 l
1.33 0.28 l
1.34 0.27 l
1.33 0.25 l
1.34 0.23 l
1.33 0.21 l
1.33 0.18 l
1.34 0.17 l
1.33 0.16 l
1.34 0.16 l
1.33 0.16 l
1.33 0.18 l
1.34 0.19 l
1.33 0.21 l
1.34 0.22 l
266.29 212.48 lineto
1.34 0.24 l
1.33 0.24 l
1.33 0.24 l
1.34 0.25 l
1.33 0.26 l
1.34 0.26 l
1.33 0.27 l
1.34 0.30 l
1.33 0.30 l
1.33 0.33 l
1.34 0.36 l
1.33 0.38 l
1.34 0.39 l
1.33 0.42 l
1.34 0.42 l
1.33 0.42 l
1.33 0.41 l
1.34 0.40 l
1.33 0.36 l
1.34 0.33 l
1.33 0.29 l
1.34 0.23 l
1.33 0.18 l
1.33 0.13 l
1.34 0.09 l
1.33 0.05 l
1.34 0.03 l
1.33 0.04 l
1.34 0.05 l
1.33 0.09 l
1.33 0.13 l
1.34 0.19 l
1.33 0.27 l
1.34 0.33 l
1.33 0.41 l
1.34 0.47 l
1.33 0.54 l
1.33 0.59 l
1.34 0.64 l
1.33 0.68 l
1.34 0.71 l
1.33 0.75 l
1.34 0.79 l
1.33 0.80 l
1.33 0.83 l
1.34 0.85 l
1.33 0.85 l
1.34 0.84 l
1.33 0.82 l
1.33 0.80 l
1.34 0.77 l
1.33 0.73 l
1.34 0.70 l
1.33 0.66 l
1.34 0.63 l
1.33 0.60 l
1.33 0.59 l
1.34 0.57 l
1.33 0.57 l
1.34 0.57 l
1.33 0.59 l
1.34 0.61 l
1.33 0.64 l
1.33 0.70 l
1.34 0.77 l
1.33 0.85 l
1.34 0.96 l
1.33 1.07 l
1.34 1.21 l
1.33 1.34 l
1.33 1.49 l
1.34 1.64 l
1.33 1.79 l
1.34 1.92 l
1.33 2.03 l
1.34 2.14 l
1.33 2.22 l
1.33 2.30 l
1.34 2.37 l
1.33 2.41 l
1.34 2.47 l
1.33 2.50 l
1.34 2.55 l
1.33 2.60 l
1.33 2.66 l
1.34 2.73 l
1.33 2.79 l
1.34 2.88 l
1.33 2.96 l
1.34 3.06 l
1.33 3.14 l
1.33 3.23 l
1.34 3.33 l
1.33 3.43 l
1.34 3.52 l
1.33 3.62 l
1.34 3.71 l
1.33 3.77 l
1.33 3.81 l
399.72 330.55 lineto
1.33 3.78 l
1.34 3.72 l
1.33 3.60 l
1.33 3.46 l
1.34 3.29 l
1.33 3.12 l
1.34 2.95 l
1.33 2.82 l
1.34 2.72 l
1.33 2.70 l
1.33 2.71 l
1.34 2.80 l
1.33 2.91 l
1.34 3.08 l
1.33 3.24 l
1.34 3.41 l
1.33 3.57 l
1.33 3.67 l
1.34 3.73 l
1.33 3.72 l
1.34 3.62 l
1.33 3.46 l
1.34 3.24 l
1.33 2.99 l
1.33 2.70 l
1.34 2.43 l
1.33 2.18 l
1.34 1.94 l
1.33 1.76 l
1.34 1.62 l
1.33 1.50 l
1.33 1.39 l
1.34 1.27 l
1.33 1.11 l
1.34 0.90 l
1.33 0.61 l
1.34 0.28 l
1.33 -0.12 l
1.33 -0.54 l
1.34 -0.98 l
1.33 -1.37 l
1.34 -1.73 l
1.33 -1.99 l
1.34 -2.18 l
1.33 -2.25 l
1.33 -2.24 l
1.34 -2.16 l
1.33 -2.06 l
1.34 -1.93 l
1.33 -1.83 l
1.33 -1.75 l
1.34 -1.72 l
1.33 -1.73 l
1.34 -1.81 l
1.33 -1.93 l
1.34 -2.11 l
1.33 -2.30 l
1.33 -2.49 l
1.34 -2.69 l
1.33 -2.86 l
1.34 -3.02 l
1.33 -3.15 l
1.34 -3.25 l
1.33 -3.31 l
1.33 -3.36 l
1.34 -3.38 l
1.33 -3.41 l
1.34 -3.42 l
1.33 -3.43 l
1.34 -3.45 l
1.33 -3.47 l
1.33 -3.50 l
1.34 -3.50 l
1.33 -3.52 l
1.34 -3.52 l
1.33 -3.50 l
1.34 -3.47 l
1.33 -3.43 l
1.33 -3.38 l
1.34 -3.33 l
1.33 -3.29 l
1.34 -3.27 l
1.33 -3.27 l
1.34 -3.29 l
1.33 -3.32 l
1.33 -3.39 l
1.34 -3.46 l
1.33 -3.55 l
1.34 -3.61 l
1.33 -3.68 l
1.34 -3.71 l
1.33 -3.71 l
1.33 -3.68 l
1.34 -3.60 l
1.33 -3.50 l
1.34 -3.36 l
1.33 -3.22 l
1.34 -3.04 l
1.33 -2.88 l
533.14 250.45 lineto
1.34 -2.54 l
1.33 -2.37 l
1.34 -2.23 l
1.33 -2.08 l
1.33 -1.96 l
1.34 -1.83 l
1.33 -1.72 l
1.34 -1.61 l
1.33 -1.49 l
1.34 -1.39 l
1.33 -1.28 l
1.33 -1.19 l
1.34 -1.10 l
1.33 -1.03 l
1.34 -0.97 l
1.33 -0.94 l
1.34 -0.93 l
1.33 -0.92 l
1.33 -0.93 l
1.34 -0.94 l
1.33 -0.96 l
1.34 -0.97 l
1.33 -0.99 l
1.34 -0.99 l
1.33 -0.98 l
1.33 -0.98 l
1.34 -0.96 l
1.33 -0.94 l
1.34 -0.90 l
1.33 -0.87 l
1.34 -0.82 l
1.33 -0.77 l
1.33 -0.70 l
1.34 -0.64 l
1.33 -0.56 l
1.34 -0.49 l
1.33 -0.42 l
1.34 -0.35 l
1.33 -0.28 l
1.33 -0.23 l
1.34 -0.19 l
1.33 -0.15 l
1.34 -0.13 l
1.33 -0.11 l
1.34 -0.10 l
1.33 -0.10 l
1.33 -0.09 l
1.34 -0.10 l
1.33 -0.11 l
1.34 -0.12 l
1.33 -0.15 l
1.34 -0.16 l
1.33 -0.17 l
1.33 -0.19 l
1.34 -0.20 l
1.33 -0.21 l
1.34 -0.20 l
1.33 -0.19 l
1.33 -0.17 l
1.34 -0.16 l
1.33 -0.13 l
1.34 -0.11 l
1.33 -0.09 l
1.34 -0.07 l
1.33 -0.05 l
1.33 -0.04 l
1.34 -0.03 l
1.33 -0.03 l
1.34 -0.03 l
1.33 -0.03 l
1.34 -0.04 l
1.33 -0.04 l
1.33 -0.05 l
1.34 -0.06 l
1.33 -0.06 l
1.34 -0.07 l
1.33 -0.07 l
1.34 -0.07 l
1.33 -0.07 l
1.33 -0.07 l
1.34 -0.05 l
1.33 -0.06 l
1.34 -0.04 l
1.33 -0.04 l
1.34 -0.03 l
1.33 -0.02 l
1.33 -0.02 l
1.34 -0.01 l
1.33 -0.01 l
1.34 -0.01 l
1.33 0 l
1.34 0 l
1.33 0 l
1.33 0 l
1.34 0 l
1.33 0 l
1.34 0 l
1.33 0.01 l
1.34 0.01 l
666.57 201.73 lineto
1.33 0.01 l
1.34 0.02 l
1.33 0.01 l
1.34 0.02 l
1.33 0.02 l
1.34 0.02 l
1.33 0.01 l
1.33 0.02 l
1.34 0.01 l
1.33 0.01 l
1.34 0.01 l
1.33 0.01 l
1.33 0 l
1.34 0 l
1.33 0 l
1.34 0 l
1.33 0 l
1.34 0 l
1.33 0 l
1.33 -0.01 l
1.34 0 l
1.33 -0.01 l
1.34 -0.01 l
1.33 -0.02 l
1.34 -0.01 l
1.33 -0.02 l
1.33 -0.02 l
1.34 -0.02 l
1.33 -0.02 l
1.34 -0.01 l
1.33 -0.01 l
1.01 -0.01 l
o
0 0 0 srgb
0.75 setlinewidth
[] 0 setdash
237.98 396.62 140.52 -74.88 r p1
1 0 0.8000 srgb
0.75 setlinewidth
[ 2.25 3.75] 0 setdash
np
252.02 377.90 m
28.08 0 l
o
0.8000 0 0.2000 srgb
0.75 setlinewidth
[ 0.00 3.00] 0 setdash
np
252.02 359.18 m
28.08 0 l
o
0 0 0.4000 srgb
0.75 setlinewidth
[ 0.00 3.00 2.25 3.00] 0 setdash
np
252.02 340.46 m
28.08 0 l
o
/Font1 findfont 16 s
0 0 0 srgb
294.14 372.16 (W) 0 ta
-0.480 (eib) tb
-0.320 (ull) tb gr
294.14 353.44 (LN) 0 0 t
294.14 334.72 (LN mixture) 0 0 t
ep
%%Trailer
%%Pages: 1
%%EOF
